BIOS 6624: Project 3
…
STROKE indicator is 0 but there’s a time to stroke value????

fmhst_filt %>% 
  filter(STROKE==0 & TIMESTRK <= 10*365.25) %>% 
  select(c(1,24,29,), 36:43)

## # A tibble: 379 × 11
##    RANDID DEATH STROKE TIMESTRK TIMECVD TIMEDTH TIMEHYP TIMESTRKorCENS_10y
##     <dbl> <dbl>  <dbl>    <dbl>   <dbl>   <dbl>   <dbl>              <dbl>
##  1  30928     1      0      146     146     146       0                146
##  2  33555     1      0     1442    1442    1442    1442               1442
##  3  54224     1      0      430     430     430     430                430
##  4  63221     1      0      168     168     168       0                168
##  5  76273     1      0     1417    1417    1417    1417               1417
##  6  95541     1      0     2697    2697    2697       0               2697
##  7 100722     1      0     1881    1881    1881    1881               1881
##  8 110542     1      0     3315    3315    3315       0               3315
##  9 157585     1      0     1620    1620    1620    1472               1620
## 10 177761     0      0     2911    2911    8766    2911               2911
## # ℹ 369 more rows
## # ℹ 3 more variables: STROKE_10y <fct>, CENSORED_10y <fct>, STROKE_bin <dbl>
…
